Project 1: Exploratory Data Analysis
…
longer_drink_freedom <- drink_freedom %>% pivot_longer(contains("pf")) %>% unite("Country statistic", country, name, na.rm = TRUE, remove = FALSE) %>% select(-country, -name) %>% rename("Statistic Value" = value) 
longer_drink_freedom 

## # A tibble: 1,001 x 7
##    `Country statis~ beer_servings spirit_servings wine_servings total_litres_of~
##    <chr>                    <int>           <int>         <int>            <dbl>
##  1 Albania_pf_rol_~            89             132            54              4.9
##  2 Albania_pf_ss_h~            89             132            54              4.9
##  3 Albania_pf_reli~            89             132            54              4.9
##  4 Albania_pf_reli~            89             132            54              4.9
##  5 Albania_pf_ss_w~            89             132            54              4.9
##  6 Albania_pf_ss               89             132            54              4.9
##  7 Albania_pf_score            89             132            54              4.9
##  8 Algeria_pf_rol_~            25               0            14              0.7
##  9 Algeria_pf_ss_h~            25               0            14              0.7
## 10 Algeria_pf_reli~            25               0            14              0.7
## # ... with 991 more rows, and 2 more variables: year <dbl>, `Statistic
## #   Value` <dbl>
…
tidycor <- bigcormat %>% as.data.frame %>% rownames_to_column("Variable 1") %>%
pivot_longer(-1,names_to="Variable 2",values_to="correlation")
tidycor

## # A tibble: 144 x 3
##    `Variable 1`  `Variable 2`                 correlation
##    <chr>         <chr>                              <dbl>
##  1 beer_servings beer_servings                     1     
##  2 beer_servings spirit_servings                   0.430 
##  3 beer_servings wine_servings                     0.532 
##  4 beer_servings total_litres_of_pure_alcohol      0.825 
##  5 beer_servings year                             NA     
##  6 beer_servings pf_rol_criminal                   0.404 
##  7 beer_servings pf_ss_homicide                   -0.0721
##  8 beer_servings pf_religion_restrictions          0.0446
##  9 beer_servings pf_religion_harassment            0.0399
## 10 beer_servings pf_ss_women_missing               0.357 
## # ... with 134 more rows
…
matrix1 <- drink_freedom_new %>% column_to_rownames("country") %>% select(total_litres_of_pure_alcohol, pf_ss_homicide, pf_score) %>%
na.omit %>% dist %>% as.matrix 
matrix1 %>% as.data.frame %>% rownames_to_column("name1") %>%
pivot_longer(-name1,names_to="name2",values_to="distance")

## # A tibble: 17,956 x 3
##    name1   name2      distance
##    <chr>   <chr>         <dbl>
##  1 Albania Albania        0   
##  2 Albania Algeria        5.12
##  3 Albania Angola         2.77
##  4 Albania Argentina      3.66
##  5 Albania Armenia        1.49
##  6 Albania Australia      5.85
##  7 Albania Austria        5.17
##  8 Albania Azerbaijan     3.85
##  9 Albania Bahamas        8.39
## 10 Albania Bahrain        3.52
## # ... with 17,946 more rows
…
