Project 2: Modeling, Testing, and Predicting
…
         December 11, 2020 

Alistair Keggen
Project 2

library(dplyr)

# Suppress summarise info
options(dplyr.summarise.inform = FALSE)
storms <- storms

storms

## # A tibble: 10,010 x 13
## name year month day hour lat long status category wind
pressure ts_diameter hu_diameter
## <chr> <dbl> <dbl> <int> <dbl> <dbl> <dbl> <chr> <ord>
<int> <int> <dbl> <dbl>
## 1 Amy 1975 6 27 0 27.5 -79 tropic~ -1 25 1013 NA NA
## 2 Amy 1975 6 27 6 28.5 -79 tropic~ -1 25 1013 NA NA
## 3 Amy 1975 6 27 12 29.5 -79 tropic~ -1 25 1013 NA NA
## 4 Amy 1975 6 27 18 30.5 -79 tropic~ -1 25 1013 NA NA
## 5 Amy 1975 6 28 0 31.5 -78.8 tropic~ -1 25 1012 NA NA
## 6 Amy 1975 6 28 6 32.4 -78.7 tropic~ -1 25 1012 NA NA
## 7 Amy 1975 6 28 12 33.3 -78 tropic~ -1 25 1011 NA NA
## 8 Amy 1975 6 28 18 34 -77 tropic~ -1 30 1006 NA NA
## 9 Amy 1975 6 29 0 34.4 -75.8 tropic~ 0 35 1004 NA NA
## 10 Amy 1975 6 29 6 34 -74.8 tropic~ 0 40 1002 NA NA
## # ... with 10,000 more rows
…
